{
  "activeepisode": [
    {
      "canCancelScheduledEpisode": true,
      "patientLocalIdentifier": "010645",
      "patientFullName": "GREGORY, Mia",
      "patientCategory": "",
      "episodeReferralDate": "14-Dec-2019",
      "roomName": "",
      "procedureCombinationName": "Colonoscopy",
      "episodeProcedureDate": "",
      "endoscopistFullName": "",
      "patientStatus": "Appointment Cancelled - Episode Pending Cancellation",
      "episodeId": ""
    },
    {
      "canCancelScheduledEpisode": true,
      "patientLocalIdentifier": "010645",
      "patientFullName": "GREGORY, Mia",
      "patientCategory": "",
      "episodeReferralDate": "14-Dec-2019",
      "roomName": "",
      "procedureCombinationName": "Colonoscopy",
      "episodeProcedureDate": "",
      "endoscopistFullName": "",
      "patientStatus": "Appointment Cancelled - Episode Pending Cancellation",
      "episodeId": ""
    }
  ],
  "dailylist": [
    {
      "TCI": "10:50",
      "appointmenttime": "Mon 16-Nov-2020 11-00",
      "room": "MA -RM 1",
      "pat":"IP",
      "appointmenttype": "Emergency",
      "points": "2",
      "proceducure": "Colonoscopy",
      "identifier": "037434",
      "patient": "Harding, Riley",
      "status": "Admission Complete"
    },
    {
      "TCI": "12:50",
      "appointmenttime": "Mon 17-Nov-2020 11-00",
      "room": "MA -RM 1",
      "pat":"IP",
      "appointmenttype": "Emergency",
      "points": "2",
      "proceducure": "Colonoscopy",
      "identifier": "037434",
      "patient": "GREGORY, Mia",
      "status": "Admission Complete"
    }
  ]
}
